{
  "targets": [
    "PLACE_BLOCK",
    "FAIL"
  ],
  "items": [
    "#default_dispenser_configurators:falling_block_items",
    "#default_dispenser_configurators:non_breeding_plantable",
    "#default_dispenser_configurators:grown",
    "#minecraft:rails",
    "minecraft:ladder",
    "pointed_dripstone",
    "small_dripleaf",
    "big_dripleaf",
    "glow_lichen",
    "#wool_carpets",
    "moss_carpet",
    "moss_block",
    "glow_berries",
    "hanging_roots"
  ]
}