{
  "values": [
    "minecraft:red_mushroom",
    "minecraft:brown_mushroom",
    "minecraft:crimson_fungus",
    "minecraft:sugar_cane",
    "minecraft:nether_wart",
    "minecraft:chorus_flower",
    "minecraft:sea_pickle",
    "minecraft:grass",
    "minecraft:tall_grass",
    "minecraft:fern",
    "minecraft:large_fern",
    "minecraft:vine",
    "minecraft:weeping_vines",
    "minecraft:twisting_vines",
    "minecraft:cocoa_beans",
    "#minecraft:saplings"
  ]
}